Poverty vs. Education Report
…
The data sets we used were:

## ── Attaching core tidyverse packages ──────────────────────── tidyverse 2.0.0 ──
## ✔ dplyr     1.1.3     ✔ readr     2.1.4
## ✔ forcats   1.0.0     ✔ stringr   1.5.0
## ✔ ggplot2   3.4.4     ✔ tibble    3.2.1
## ✔ lubridate 1.9.3     ✔ tidyr     1.3.0
## ✔ purrr     1.0.2     
## ── Conflicts ────────────────────────────────────────── tidyverse_conflicts() ──
## ✖ dplyr::filter() masks stats::filter()
## ✖ dplyr::lag()    masks stats::lag()
## ℹ Use the conflicted package (<http://conflicted.r-lib.org/>) to force all conflicts to become errors

## # A tibble: 3,155 × 6
##    FIPS_Code State Area.name       Percent.of.adults.wi…¹ Percent.of.adults.co…²
##        <int> <chr> <chr>                            <dbl>                  <dbl>
##  1      1001 AL    Autauga County                    32.8                   28.7
##  2      1003 AL    Baldwin County                    27.4                   31.2
##  3      1005 AL    Barbour County                    36.7                   27.8
##  4      1007 AL    Bibb County                       43.9                   24.7
##  5      1009 AL    Blount County                     35.1                   33.6
##  6      1011 AL    Bullock County                    41.3                   24.6
##  7      1013 AL    Butler County                     45.2                   26.3
##  8      1015 AL    Calhoun County                    34.6                   31.1
##  9      1017 AL    Chambers County                   36.2                   32.9
## 10      1019 AL    Cherokee County                   36.9                   30.1
## # ℹ 3,145 more rows
## # ℹ abbreviated names:
## #   ¹​Percent.of.adults.with.a.high.school.diploma.only..2017.21,
## #   ²​Percent.of.adults.completing.some.college.or.associate.s.degree..2017.21
## # ℹ 1 more variable:
## #   Percent.of.adults.with.a.bachelor.s.degree.or.higher..2017.21 <dbl>

## # A tibble: 3,144 × 2
##    FIPS_Code PCTPOVALL_2021
##        <int>          <dbl>
##  1      1001           10.7
##  2      1003           10.8
##  3      1005           23  
##  4      1007           20.6
##  5      1009           12  
##  6      1011           32.1
##  7      1013           22.7
##  8      1015           19.2
##  9      1017           19.7
## 10      1019           18.2
## # ℹ 3,134 more rows
…
